"uid","name","label","description","owner","parent","may_be_composite","file_extension","file_type","icon","script_post_store","script_pre_store","script_post_update","script_pre_update","recognition_regexp","visu_file_extension"
"00000000-1111-2222-2222-000000000001","cao__drafting","cao__drafting","Fichiers MATRA Prelude drafting","99999999-9999-9999-9999-00000000abcd","01234567-0123-0123-0123-0123456789AB","0",".drw","file",,,,,,,"NULL"
"00000000-1111-2222-2222-000000000002","cao__dxf","cao__dxf","Fichiers AutoCAD","99999999-9999-9999-9999-00000000abcd","01234567-0123-0123-0123-0123456789AB","0",".dxf","file","dwf.gif",,,,,,"NULL"
"00000000-1111-2222-2222-000000000003","cao__i-deas","cao__i-deas","Fichiers SDRC I-deas","99999999-9999-9999-9999-00000000abcd","01234567-0123-0123-0123-0123456789AB","0",".unv","file",,,,,,,"NULL"
"00000000-1111-2222-2222-000000000004","cao__iges","cao__iges","Format d'echange CAO IGES","99999999-9999-9999-9999-00000000abcd","01234567-0123-0123-0123-0123456789AB","0",".igs","file",,,,,,,"NULL"
"00000000-1111-2222-2222-000000000005","cao__pro_eng","cao__pro_eng","Fichiers ProEngineer","99999999-9999-9999-9999-00000000abcd","01234567-0123-0123-0123-0123456789AB","0",".prt","file",,,,,,,"NULL"
"00000000-1111-2222-2222-000000000006","cao__set","cao__set","Fichiers CAO set","99999999-9999-9999-9999-00000000abcd","01234567-0123-0123-0123-0123456789AB","0",".set","file",,,,,,,"NULL"
"00000000-1111-2222-2222-000000000007","cao__sla","cao__sla","Fichiers stéréolithographie","99999999-9999-9999-9999-00000000abcd","01234567-0123-0123-0123-0123456789AB","0",".stl","file",,,,,,,"NULL"
"00000000-1111-2222-2222-000000000008","cao__step","cao__step","Fichiers de données STEP","99999999-9999-9999-9999-00000000abcd","01234567-0123-0123-0123-0123456789AB","0",".step","file","stp.gif",,,,,,"NULL"
"00000000-1111-2222-2222-000000000009","cao__vda","cao__vda","Fichiers de surface","99999999-9999-9999-9999-00000000abcd","01234567-0123-0123-0123-0123456789AB","0",".vda","file",,,,,,,"NULL"
"00000000-1111-2222-2222-000000000010","text__pdf","text__pdf","Fichiers Adobe Acrobat","99999999-9999-9999-9999-00000000abcd","01234567-0123-0123-0123-0123456789AB","0",".pdf","file","pdf.gif",,,,,,"NULL"
"00000000-1111-2222-2222-000000000011","text__postscript","text__postscript","Fichiers PostScript","99999999-9999-9999-9999-00000000abcd","01234567-0123-0123-0123-0123456789AB","0",".ps","file","ps.gif",,,,,,"NULL"
"00000000-1111-2222-2222-000000000012","text__epostscript","text__epostscript","Fichiers PostScript","99999999-9999-9999-9999-00000000abcd","01234567-0123-0123-0123-0123456789AB","0",".eps","file","eps.gif",,,,,,"NULL"
"00000000-1111-2222-2222-000000000013","text__rtf","text__rtf","Format de texte enrichi","99999999-9999-9999-9999-00000000abcd","01234567-0123-0123-0123-0123456789AB","0",".rtf","file","rtf.gif",,,,,,"NULL"
"00000000-1111-2222-2222-000000000014","text__htm","text__htm","Fichiers HTML","99999999-9999-9999-9999-00000000abcd","01234567-0123-0123-0123-0123456789AB","0",".htm","file","html.gif",,,,,,"NULL"
"00000000-1111-2222-2222-000000000015","text__html","text__html","Fichiers HTML","99999999-9999-9999-9999-00000000abcd","01234567-0123-0123-0123-0123456789AB","0",".html","file","htm.gif",,,,,,"NULL"
"00000000-1111-2222-2222-000000000016","text__plain","text__plain","Fichiers texte sans mise en forme","99999999-9999-9999-9999-00000000abcd","01234567-0123-0123-0123-0123456789AB","0",".txt","file","txt.gif",,,,,,"NULL"
"00000000-1111-2222-2222-000000000017","text__tsv","text__tsv","Fichiers texte avec séparation des valeurs par tabulations","99999999-9999-9999-9999-00000000abcd","01234567-0123-0123-0123-0123456789AB","0",".tsv","file","tsv.gif",,,,,,"NULL"
"00000000-1111-2222-2222-000000000018","text__csv","text__csv","Fichiers texte avec séparation des valeurs par virgules","99999999-9999-9999-9999-00000000abcd","01234567-0123-0123-0123-0123456789AB","0",".csv","file","csv.gif",,,,,,"NULL"
"00000000-1111-2222-2222-000000000019","text__msword","text__msword","Fichiers msword","99999999-9999-9999-9999-00000000abcd","01234567-0123-0123-0123-0123456789AB","0",".doc","file","doc.gif",,,,,,"NULL"
"00000000-1111-2222-2222-000000000020","text__msxls","text__msxls","Fichiers msexcel","99999999-9999-9999-9999-00000000abcd","01234567-0123-0123-0123-0123456789AB","0",".xls","file","xls.gif",,,,,,"NULL"
"00000000-1111-2222-2222-000000000021","text__msppt","text__msppt","Fichiers msppt","99999999-9999-9999-9999-00000000abcd","01234567-0123-0123-0123-0123456789AB","0",".ppt","file","ppt.gif",,,,,,"NULL"
"00000000-1111-2222-2222-000000000022","text__oowriter","text__oowriter","Fichiers oo writer","99999999-9999-9999-9999-00000000abcd","01234567-0123-0123-0123-0123456789AB","0",".odt","file","odt.gif",,,,,,"NULL"
"00000000-1111-2222-2222-000000000023","text__oocalc","text__oocalc","Fichiers oo calc","99999999-9999-9999-9999-00000000abcd","01234567-0123-0123-0123-0123456789AB","0",".ods","file","ods.gif",,,,,,"NULL"
"00000000-1111-2222-2222-000000000024","text__ooimpress","text__ooimpress","Fichiers oo impress","99999999-9999-9999-9999-00000000abcd","01234567-0123-0123-0123-0123456789AB","0",".odp","file","odp.gif",,,,,,"NULL"
"00000000-1111-2222-2222-000000000025","model__msword","model__msword","Fichiers model msword","99999999-9999-9999-9999-00000000abcd","01234567-0123-0123-0123-0123456789AB","0",".dot","file","dot.gif",,,,,,"NULL"
"00000000-1111-2222-2222-000000000026","model__msxls","model__msxls","Fichiers model msexcel","99999999-9999-9999-9999-00000000abcd","01234567-0123-0123-0123-0123456789AB","0",".xlt","file","xls.gif",,,,,,"NULL"
"00000000-1111-2222-2222-000000000027","model__msppt","model__msppt","Fichiers model msppt","99999999-9999-9999-9999-00000000abcd","01234567-0123-0123-0123-0123456789AB","0",".pot","file","pot.gif",,,,,,"NULL"
"00000000-1111-2222-2222-000000000028","model__oowriter","model__oowriter","Fichiers model oo writer","99999999-9999-9999-9999-00000000abcd","01234567-0123-0123-0123-0123456789AB","0",".ott","file","ott.gif",,,,,,"NULL"
"00000000-1111-2222-2222-000000000029","model__oocalc","model__oocalc","Fichiers model oo calc","99999999-9999-9999-9999-00000000abcd","01234567-0123-0123-0123-0123456789AB","0",".ots","file","ots.gif",,,,,,"NULL"
"00000000-1111-2222-2222-000000000030","model__ooimpress","model__ooimpress","Fichiers model oo impress","99999999-9999-9999-9999-00000000abcd","01234567-0123-0123-0123-0123456789AB","0",".otp","file","otp.gif",,,,,,"NULL"
"00000000-1111-2222-2222-000000000031","archive__gtar","archive__gtar","Tar GNU","99999999-9999-9999-9999-00000000abcd","01234567-0123-0123-0123-0123456789AB","0",".gtar","file","gtar.gif",,,,,,"NULL"
"00000000-1111-2222-2222-000000000032","archive__tar","archive__tar","Fichiers tar","99999999-9999-9999-9999-00000000abcd","01234567-0123-0123-0123-0123456789AB","0",".tar","file","tar.gif",,,,,,"NULL"
"00000000-1111-2222-2222-000000000033","archive__zip","archive__zip","Fichiers compressés ZIP","99999999-9999-9999-9999-00000000abcd","01234567-0123-0123-0123-0123456789AB","0",".zip","file","zip.gif",,,,,,"NULL"
"00000000-1111-2222-2222-000000000034","archive__gzip","archive__gzip","Fichiers archive GNU zip","99999999-9999-9999-9999-00000000abcd","01234567-0123-0123-0123-0123456789AB","0",".gzip","file","gzip.gif",,,,,,"NULL"
"00000000-1111-2222-2222-000000000035","archive__gz","archive__gz","Fichiers archive GNU zip","99999999-9999-9999-9999-00000000abcd","01234567-0123-0123-0123-0123456789AB","0",".gz","file","gz.gif",,,,,,"NULL"
"00000000-1111-2222-2222-000000000036","archive__Z","archive__Z","Fichiers archive unix","99999999-9999-9999-9999-00000000abcd","01234567-0123-0123-0123-0123456789AB","0",".Z","file","Z.gif",,,,,,"NULL"
"00000000-1111-2222-2222-000000000037","audio__basic","audio__basic","Fichiers audio basiques","99999999-9999-9999-9999-00000000abcd","01234567-0123-0123-0123-0123456789AB","0",".snd","file","snd.gif",,,,,,"NULL"
"00000000-1111-2222-2222-000000000038","audio__x-aiff","audio__x-aiff","Fichiers audio AIFF","99999999-9999-9999-9999-00000000abcd","01234567-0123-0123-0123-0123456789AB","0",".aif","file","aif.gif",,,,,,"NULL"
"00000000-1111-2222-2222-000000000039","audio__x-wav","audio__x-wav","Fichiers audio Wave","99999999-9999-9999-9999-00000000abcd","01234567-0123-0123-0123-0123456789AB","0",".wav","file","wav.gif",,,,,,"NULL"
"00000000-1111-2222-2222-000000000040","image__gif","image__gif","Images gif","99999999-9999-9999-9999-00000000abcd","01234567-0123-0123-0123-0123456789AB","0",".gif","file","gif.gif",,,,,,"NULL"
"00000000-1111-2222-2222-000000000041","image__jpeg","image__jpeg","Images Jpeg","99999999-9999-9999-9999-00000000abcd","01234567-0123-0123-0123-0123456789AB","0",".jpg","file","jpg.gif",,,,,,"NULL"
"00000000-1111-2222-2222-000000000042","image__tiff","image__tiff","Images Tiff","99999999-9999-9999-9999-00000000abcd","01234567-0123-0123-0123-0123456789AB","0",".tif","file","tif.gif",,,,,,"NULL"
"00000000-1111-2222-2222-000000000043","image__png","image__png","Images png","99999999-9999-9999-9999-00000000abcd","01234567-0123-0123-0123-0123456789AB","0",".png","file","png.gif",,,,,,"NULL"
"00000000-1111-2222-2222-000000000044","cao__solidwork","cao__solidwork","Part solidWork","99999999-9999-9999-9999-00000000abcd","01234567-0123-0123-0123-0123456789AB","0",".sdw","file","sdw.gif",,,,,,"NULL"
"00000000-1111-2222-2222-000000000045","cao__cadds_zipadrawc4","cao__cadds_zipadrawc4","adraw cadds4x","99999999-9999-9999-9999-00000000abcd","01234567-0123-0123-0123-0123456789AB","0","_pd","adrawc4","cadds.gif",,,,,,"NULL"
"00000000-1111-2222-2222-000000000046","cao__cadds_zipadrawc5","cao__cadds_zipadrawc5","adraw cadds5","99999999-9999-9999-9999-00000000abcd","01234567-0123-0123-0123-0123456789AB","0","_fd","adrawc5","cadds.gif",,,,,,"NULL"
"00000000-1111-2222-2222-000000000047","cao__cadds4x","cao__cadds4x","Part cadds4x","99999999-9999-9999-9999-00000000abcd","01234567-0123-0123-0123-0123456789AB","0","_pd","cadds4","cadds.gif",,,,,,"NULL"
"00000000-1111-2222-2222-000000000048","cao__cadds5","cao__cadds5","Parts cadds5","99999999-9999-9999-9999-00000000abcd","01234567-0123-0123-0123-0123456789AB","0","_fd","cadds5","cadds.gif",,,,,,"NULL"
"00000000-1111-2222-2222-000000000049","cao__cadds_adrawc4","cao__cadds_adrawc4","adraw cadds4x","99999999-9999-9999-9999-00000000abcd","01234567-0123-0123-0123-0123456789AB","0",".adrawc4","adrawc4","cadds.gif",,,,,,"NULL"
"00000000-1111-2222-2222-000000000050","cao__cadds_adrawc5","cao__cadds_adrawc5","adraw cadds5","99999999-9999-9999-9999-00000000abcd","01234567-0123-0123-0123-0123456789AB","0",".adrawc5","adrawc5","cadds.gif",,,,,,"NULL"
"00000000-1111-2222-2222-000000000051","cao__cadds_camu","cao__cadds_camu","product cadds","99999999-9999-9999-9999-00000000abcd","01234567-0123-0123-0123-0123456789AB","0","_db","camu","cadds.gif",,,,,,"NULL"
"00000000-1111-2222-2222-000000000052","cao__catpart","cao__catpart","Fichier part catia","99999999-9999-9999-9999-00000000abcd","01234567-0123-0123-0123-0123456789AB","0",".CATPart","file","CATPart.gif",,,,,,"NULL"
"00000000-1111-2222-2222-000000000053","cao__catdrawing","cao__catdrawing","Fichier drawing catia","99999999-9999-9999-9999-00000000abcd","01234567-0123-0123-0123-0123456789AB","0",".CATDrawing","file","CATDrawing.gif",,,,,,"NULL"
"00000000-1111-2222-2222-000000000054","cao__catproduct","cao__catproduct","Fichier product catia","99999999-9999-9999-9999-00000000abcd","01234567-0123-0123-0123-0123456789AB","0",".CATProduct","file","CATProduct.gif",,,,,,"NULL"
"00000000-1111-2222-2222-000000000055","cao__catmodel","cao__catmodel","Fichier model catia","99999999-9999-9999-9999-00000000abcd","01234567-0123-0123-0123-0123456789AB","0",".model","file","model.gif",,,,,,"NULL"
"00000000-1111-2222-2222-000000000056","cao__catalog","cao__catalog","Fichier catalog catia","99999999-9999-9999-9999-00000000abcd","01234567-0123-0123-0123-0123456789AB","0",".catalog","file",,,,,,,"NULL"
"00000000-1111-2222-2222-000000000057","cao__catanalysis","cao__catanalysis","Fichier analyse catia","99999999-9999-9999-9999-00000000abcd","01234567-0123-0123-0123-0123456789AB","0",".CATAnalysis","file","CATAnalysis.gif",,,,,,"NULL"
"00000000-1111-2222-2222-000000000058","cao__catcatalog","cao__catcatalog","Fichier analyse catia","99999999-9999-9999-9999-00000000abcd","01234567-0123-0123-0123-0123456789AB","0",".CATCatalog","file","CATCatalog.gif",,,,,,"NULL"
"00000000-1111-2222-2222-000000000059","cao__catmaterial","cao__catmaterial","Fichier material catia","99999999-9999-9999-9999-00000000abcd","01234567-0123-0123-0123-0123456789AB","0",".CATMaterial","file","CATMaterial.gif",,,,,,"NULL"
"00000000-1111-2222-2222-000000000060","cao__catprocess","cao__catprocess","Fichier process catia","99999999-9999-9999-9999-00000000abcd","01234567-0123-0123-0123-0123456789AB","0",".CATProcess","file","CATProcess.gif",,,,,,"NULL"
"00000000-1111-2222-2222-000000000061","cao__catsetting","cao__catsetting","Fichier setting catia","99999999-9999-9999-9999-00000000abcd","01234567-0123-0123-0123-0123456789AB","0",".CATSetting","file","CATSetting.gif",,,,,,"NULL"
"00000000-1111-2222-2222-000000000062","cao__catscript","cao__catscript","Fichier script catia","99999999-9999-9999-9999-00000000abcd","01234567-0123-0123-0123-0123456789AB","0",".CATScript","file","CATScript.gif",,,,,,"NULL"
"00000000-1111-2222-2222-000000000063","cao__pstree","cao__pstree","product ps","99999999-9999-9999-9999-00000000abcd","01234567-0123-0123-0123-0123456789AB","0","_ps","pstree",,,,,,,"NULL"
"00000000-1111-2222-2222-000000000064","cao__acad","cao__acad","Fichiers AutoCADdwg","99999999-9999-9999-9999-00000000abcd","01234567-0123-0123-0123-0123456789AB","0",".dwg","file","dwg.gif",,,,,,"NULL"
"00000000-1111-2222-2222-000000000065","nofile","nofile","document without file","99999999-9999-9999-9999-00000000abcd","01234567-0123-0123-0123-0123456789AB","0",,"nofile","_default.gif",,,,,,"NULL"
