x-world/x-3dmf,3Fichiers DMF,.3dmf .3dm .qd3d .qd3,,cortonavrmlclient
x-world/x-vrml,Model 3D Vrml,.wrl,,cortonavrmlclient
application/x-3dxmlplugin,3D XML,.3dxml,,xmlplayer
application/acad,Fichiers AutoCAD (d'après NCSA),.dwg,
application/CATIA.Analysis,Fichier analyse catia,.CATAnalysis,
application/CATIA.Catalog,Fichier catalog catia,.catalog,
application/CATIA.Catalog,Fichier analyse catia,.CATCatalog,
application/CATIA.Drawing,Fichier drawing catia,.CATDrawing,
application/CATIA.Material,Fichier material catia,.CATMaterial,
application/CATIA.Model,Fichier model catia,.model,
application/CATIA.Part,Fichier part catia,.CATPart,
application/CATIA.Process,Fichier process catia,.CATProcess,
application/CATIA.Product,Fichier product catia,.CATProduct,
application/CATIA.Script,Fichier script catia,.CATScript,
application/CATIA.Setting,Fichier setting catia,.CATSetting,
application/SW.Part,Fichier part solidwork,.sldprt,
application/SW.Assembly,Fichier assembly solidwork,.sldasm,
application/SW.Drawing,Fichier dessin solidwork,.slddrw,
application/dsptype,Fichiers TSP,.tsp,
application/dxf,Fichiers AutoCAD (d'après CERN),.dxf,
application/futuresplash,Fichiers Flash Futuresplash,.spl,
application/gzip,Fichiers GNU Zip,.gz,
application/listenup,Fichiers Listenup,.ptlk
application/mac-binhex40,Fichiers binaires Macintosh ,.hqx
application/mbedlet,Fichiers Mbedlet,.mbd
application/mif,Fichiers FrameMaker Interchange Format,.mif
application/msexcel,Fichiers Microsoft Excel,.xls .xla
application/mshelp,Fichiers d'aide Microsoft Windows,.hlp .chm
application/mspowerpoint,Fichiers Microsoft Powerpoint,.ppt .ppz .pps .pot
application/msword,Fichiers Microsoft Word,.doc .dot
application/octet-stream,Fichiers exècutables,.bin .exe .com .dll .class
application/oda,Fichiers Oda,.oda
application/ooimpress,Fichiers oo impress,.odp
application/pdf,Fichiers Adobe PDF,.pdf
application/postscript,Fichiers Adobe Postscript,.ai .eps .ps
application/rtc,Fichiers RTC,.rtc
application/rtf,Fichiers Microsoft RTF,.rtf
application/studiom,Fichiers Studiom,.smp
application/toolbook,Fichiers Toolbook,.tbk
application/vnd.wap.wmlc,Fichiers WMLC (WAP),.wmlc
application/vnd.wap.wmlscriptc,Fichiers script C WML (WAP),.wmlsc
application/vocaltec-media-desc,Fichiers Vocaltec Mediadesc,.vmd
application/vocaltec-media-file,Fichiers Vocaltec Media,.vmf
application/x-bcpio,Fichiers BCPIO,.bcpio
application/x-compress,Fichiers -,.z
application/x-cpio,Fichiers CPIO,.cpio
application/x-csh,Fichiers C-Shellscript,.csh
application/x-director,Fichiers -,.dcr .dir .dxr
application/x-dvi,Fichiers DVI,.dvi
application/x-envoy,Fichiers Envoy,.evy
application/x-gtar,Fichiers archives GNU tar,.gtar
application/x-hdf,Fichiers HDF,.hdf
application/x-httpd-php,Fichiers PHP,.php .phtml
application/x-javascript,Fichiers JavaScript cètè serveur,.js
application/x-latex,Fichiers source Latex,.latex
application/x-mif,Fichiers FrameMaker Interchange Format,.mif
application/x-netcdf,Fichiers Unidata CDF,.nc .cdf
application/x-nschat,Fichiers NS Chat,.nsc
application/x-sh,Fichiers Bourne Shellscript,.sh
application/x-shar,Fichiers atchives Shell,.shar
application/x-shockwave-flash,Fichiers Flash Shockwave,.swf .cab
application/x-sprite,Fichiers Sprite,.spr .sprite
application/x-stuffit,Fichiers Stuffit,.sit
application/x-supercard,Fichiers Supercard,.sca
application/x-sv4cpio,Fichiers CPIO,.sv4cpio
application/x-sv4crc,Fichiers CPIO avec CRC,.sv4crc
application/x-tar,Fichiers archives tar,.tar
application/x-tcl,Fichiers script TCL,.tcl
application/x-tex,Fichiers TEX,.tex
application/x-texinfo,Fichiers TEXinfo,.texinfo .texi
application/x-troff,Fichiers TROFF (Unix),.t .tr .roff
application/x-troff-man,Fichiers TROFF avec macros MAN (Unix),.man .troff
application/x-troff-me,Fichiers TROFF avec macros ME (Unix),.me .troff
application/x-troff-ms,Fichiers TROFF avec macros MS (Unix),.me .troff
application/x-ustar,Fichiers archives tar (Posix),.ustar
application/x-wais-source,Fichiers source WAIS,.src
application/zip,Fichiers archives ZIP,.zip .Z
audio/basic,Fichiers son,.au .snd
audio/echospeech,Fichiers Echospeed,.es
audio/tsplayer,Fichiers TS-Player,.tsi
audio/voxware,Fichiers Vox,.vox
audio/x-aiff,Fichiers son AIFF,.aif .aiff .aifc
audio/x-dspeeh,Fichiers parole,.dus .cht
audio/x-midi,Fichiers MIDI,.mid .midi
audio/x-mpeg,Fichiers MPEG,.mp2
audio/x-pn-realaudio,Fichiers RealAudio,.ram .ra
audio/x-pn-realaudio-plugin,Fichiers plugin RealAudio,.rpm
audio/x-qt-stream,Fichiers -,.stream
audio/x-wav,Fichiers Wav,.wav
application/i-deas,Fichiers SDRC I-deas,.unv
application/cao__iges,Format d''èchange CAO IGES,.igs
application/proeng,Fichiers ProEngineer,.prt
application/pstree,product ps,_ps
application/set,Fichiers CAO SET,.set
application/sla,Fichiers stèrèolithographie,.stl
application/step,Fichiers de donnèes STEP,.step
application/vda,Fichiers de surface,.vda
drawing/x-dwf,Fichiers Drawing,.dwf
image/cis-cod,Fichiers CIS-Cod,.cod
image/cmu-raster,Fichiers CMU-Raster,.ras
image/fif,Fichiers FIF,.fif
image/gif,Fichiers GIF,.gif,,htmlimg
image/ief,Fichiers IEF,.ief
image/jpeg,Fichiers JPEG,.jpeg .jpg .jpe,,htmlimg
image/tiff,Fichiers TIFF,.tiff .tif
image/vasa,Fichiers Vasa,.mcf
image/vnd.wap.wbmp,Fichiers Bitmap (WAP),.wbmp
image/x-freehand,Fichiers Freehand,.fh4 .fh5 .fhc
image/x-portable-anymap,Fichiers PBM Anymap,.pnm
image/x-portable-bitmap,Fichiers Bitmap PBM,.pbm
image/x-portable-graymap,Fichiers PBM Graymap,.pgm
image/x-portable-pixmap,Fichiers PBM Pixmap,.ppm
image/x-rgb,Fichiers RGB,.rgb
image/x-windowdump,X-Windows Dump,.xwd
image/x-xbitmap,Fichiers XBM,.xbm
image/x-xpixmap,Fichiers XPM,.xpm
image/svg+xml,Scalable vector graphic,.svg
text/comma-separated-values,Fichiers de données sèparées par des virgules,.csv
text/css,Fichiers de feuilles de style CSS,.css
text/html,Fichiers -,.htm .html .shtml
text/javascript,Fichiers JavaScript,.js
text/plain,Fichiers pur texte,.txt,,gdtxt
text/richtext,Fichiers texte enrichi (Richtext),.rtx
text/rtf,Fichiers Microsoft RTF,.rtf
text/tab-separated-values,Fichiers de donnèes sèparées par des tabulations,.tsv
text/vnd.wap.wml,Fichiers WML (WAP),.wml
text/vnd.wap.wmlscript,Fichiers script WML (WAP),.wmls
text/x-setext,Fichiers SeText,.etx
text/x-sgml,Fichiers SGML,.sgm .sgml
text/x-speech,Fichiers Speech,.talk .spc
video/mpeg,Fichiers MPEG,.mpeg .mpg .mpe
video/quicktime,Fichiers Quicktime,.qt .mov
video/vnd.vivo,Fichiers Vivo,.viv .vivo
video/x-msvideo,Fichiers Microsoft AVI,.avi
video/x-sgi-movie,Fichiers Movie,.movie
workbook/formulaone,Fichiers FormulaOne,.vts .vtts,,
application/vnd.oasis.opendocument.text,Open office text,.odt,,
application/vnd.oasis.opendocument.text-template,Open office text template,.ott,,
application/vnd.oasis.opendocument.text-web,Open office text web,.oth,,
application/vnd.oasis.opendocument.text-master,Open office text master,.odm,,
application/vnd.oasis.opendocument.graphics,Open office,.odg,,
application/vnd.oasis.opendocument.graphics-template,Open office,.otg,,
application/vnd.oasis.opendocument.presentation,Open office,.odp,,
application/vnd.oasis.opendocument.presentation-template,Open office,.otp,,
application/vnd.oasis.opendocument.spreadsheet,Open office,.ods,,
application/vnd.oasis.opendocument.spreadsheet-template,Open office,.ots,,
application/vnd.oasis.opendocument.chart,Open office,.odc,,
application/vnd.oasis.opendocument.formula,Open office,.odf,,
application/vnd.oasis.opendocument.database,Open office,.odb,,
application/vnd.oasis.opendocument.image,Open office,.odi
